[
  {
    "authorId": 0,
    "authorName": {
      "first": "Carlos",
      "second": "Castaneda"
    },
    "nationality": "American",
    "birth": {
      "date": "1925-10-25",
      "country": "Peru",
      "city": "Cajamarca"
    },
    "authorDescription": "Anthropology, ethnography, shamanism"
  },
  {
    "authorId": -10,
    "authorName": {
      "first": "Carlos",
      "second": "Castaneda"
    },
    "nationality": "American",
    "birth": {
      "date": "1925-10-25",
      "country": "Peru",
      "city": "Cajamarca"
    },
    "authorDescription": "Anthropology, ethnography, shamanism"
  },
  {
    "authorId": 10,
    "authorName": {
      "first": "null",
      "second": "Castaneda"
    },
    "nationality": "American",
    "birth": {
      "date": "1925-10-25",
      "country": "Peru",
      "city": "Cajamarca"
    },
    "authorDescription": "Anthropology, ethnography, shamanism"
  },
  {
    "authorId": 10,
    "authorName": {
      "first": "Carlos",
      "second": "null"
    },
    "nationality": "American",
    "birth": {
      "date": "1925-10-25",
      "country": "Peru",
      "city": "Cajamarca"
    },
    "authorDescription": "Anthropology, ethnography, shamanism"
  }
]